Word Prediction Model
…
My goal of this section is to create a tidy text format: A table with one-token-per-row. A token is a meaningful unit of text, such as a word or punctuation. Tokenization is the process of turning text into tokens.

unnest_tokens() is a part of the tidytext package in R and splits a column of character strings into tokens (one-token-per-row).

tidyWords <- tidyData %>%
        unnest_tokens(word, text)

tidyWords %>%
        group_by(source) %>%
        count(word, name = 'Times Word Occurs') %>%
        count(`Times Word Occurs`, name = 'Number of Words') %>%
        arrange(`Times Word Occurs`)

## # A tibble: 7,135 x 3
## # Groups:   source [3]
##    source  `Times Word Occurs` `Number of Words`
##    <fct>                 <int>             <int>
##  1 news                      1             42022
##  2 blogs                     1            230477
##  3 twitter                   1            316891
##  4 news                      2             11912
##  5 blogs                     2             44980
##  6 twitter                   2             49061
##  7 news                      3              6128
##  8 blogs                     3             21405
##  9 twitter                   3             21107
## 10 news                      4              4009
## # ... with 7,125 more rows
…
